<svg xmlns="http://www.w3.org/2000/svg" width="33.472" height="20.672" viewBox="0 0 33.472 20.672">
  <g id="Group_70" data-name="Group 70" transform="translate(-313.19 -33)">
    <g id="Group_3" data-name="Group 3" transform="translate(313.19 33)">
      <rect id="Rectangle_Copy" data-name="Rectangle Copy" width="33.472" height="2.672" rx="1.336" transform="translate(0 0)" fill="#1c2e3d"/>
    </g>
    <g id="Group_3-2" data-name="Group 3" transform="translate(313.19 42)">
      <rect id="Rectangle_Copy-2" data-name="Rectangle Copy" width="33.472" height="2.672" rx="1.336" transform="translate(0 0)" fill="#1c2e3d"/>
    </g>
    <g id="Group_3-3" data-name="Group 3" transform="translate(313.19 51)">
      <rect id="Rectangle_Copy-3" data-name="Rectangle Copy" width="33.472" height="2.672" rx="1.336" transform="translate(0 0)" fill="#1c2e3d"/>
    </g>
  </g>
</svg>
